{
	"info": {
		"_postman_id": "1576e56f-fcb4-42f5-a920-81bac988b802",
		"name": "booking-api",
		"schema": "https://schema.getpostman.com/json/collection/v2.1.0/collection.json",
		"_exporter_id": "28877203"
	},
	"item": [
		{
			"name": "user main route",
			"item": [
				{
					"name": "POST /register",
					"request": {
						"method": "POST",
						"header": [],
						"body": {
							"mode": "raw",
							"raw": "{\r\n    \"firstName\": \"Admin\",\r\n    \"lastName\": \"admin\",\r\n    \"email\": \"admin@mail.com\",\r\n    \"mobileNo\": \"09123456789\",\r\n    \"password\": \"admin1234\"\r\n}",
							"options": {
								"raw": {
									"language": "json"
								}
							}
						},
						"url": {
							"raw": "http://localhost:4000/users/register",
							"protocol": "http",
							"host": [
								"localhost"
							],
							"port": "4000",
							"path": [
								"users",
								"register"
							]
						}
					},
					"response": []
				},
				{
					"name": "POST /details",
					"request": {
						"auth": {
							"type": "bearer",
							"bearer": [
								{
									"key": "token",
									"value": "eyJhbGciOiJIUzI1NiIsInR5cCI6IkpXVCJ9.eyJpZCI6IjY0ZDM2Y2U0YzM3OGRkZmVkZTMzMjEzNSIsImVtYWlsIjoiam9obkBtYWlsLmNvbSIsImlzQWRtaW4iOmZhbHNlLCJpYXQiOjE2OTE2NjU0NTJ9.OHdnD5tg6NEY5OIiBwWx3fO_IGcHIU84Ip3rExq7aIY",
									"type": "string"
								}
							]
						},
						"method": "POST",
						"header": [],
						"body": {
							"mode": "raw",
							"raw": "",
							"options": {
								"raw": {
									"language": "json"
								}
							}
						},
						"url": {
							"raw": "http://localhost:4000/users/details",
							"protocol": "http",
							"host": [
								"localhost"
							],
							"port": "4000",
							"path": [
								"users",
								"details"
							]
						}
					},
					"response": []
				},
				{
					"name": "POST /login",
					"request": {
						"method": "POST",
						"header": [],
						"body": {
							"mode": "raw",
							"raw": "{\r\n    \"email\": \"john@mail.com\",\r\n    \"password\": \"john1234\"\r\n}",
							"options": {
								"raw": {
									"language": "json"
								}
							}
						},
						"url": {
							"raw": "http://localhost:4000/users/login",
							"protocol": "http",
							"host": [
								"localhost"
							],
							"port": "4000",
							"path": [
								"users",
								"login"
							]
						}
					},
					"response": []
				},
				{
					"name": "POST /login (admin)",
					"request": {
						"method": "POST",
						"header": [],
						"body": {
							"mode": "raw",
							"raw": "{\r\n    \"email\": \"admin@mail.com\",\r\n    \"password\": \"admin1234\"\r\n}",
							"options": {
								"raw": {
									"language": "json"
								}
							}
						},
						"url": {
							"raw": "http://localhost:4000/users/login",
							"protocol": "http",
							"host": [
								"localhost"
							],
							"port": "4000",
							"path": [
								"users",
								"login"
							]
						}
					},
					"response": []
				}
			]
		},
		{
			"name": "course main route",
			"item": [
				{
					"name": "POST / (admin)",
					"request": {
						"auth": {
							"type": "bearer",
							"bearer": [
								{
									"key": "token",
									"value": "eyJhbGciOiJIUzI1NiIsInR5cCI6IkpXVCJ9.eyJpZCI6IjY0ZDU4Y2JjOTA4ZDFkZDk0ZmRkMDE5NyIsImVtYWlsIjoiYWRtaW5AbWFpbC5jb20iLCJpc0FkbWluIjp0cnVlLCJpYXQiOjE2OTE3MTY5Njh9.3oIYfJVtj5YYfJwOCBmBQ7wc02mgKQrbQBw7g03Yd1Y",
									"type": "string"
								}
							]
						},
						"method": "POST",
						"header": [],
						"body": {
							"mode": "raw",
							"raw": "{\r\n    \"name\":\"PHP Course\",\r\n    \"description\":\"With Ms. Cee\",\r\n    \"price\": 300\r\n}",
							"options": {
								"raw": {
									"language": "json"
								}
							}
						},
						"url": {
							"raw": "http://localhost:4000/courses",
							"protocol": "http",
							"host": [
								"localhost"
							],
							"port": "4000",
							"path": [
								"courses"
							]
						}
					},
					"response": []
				},
				{
					"name": "GET /all",
					"request": {
						"method": "GET",
						"header": [],
						"url": {
							"raw": "http://localhost:4000/courses/all",
							"protocol": "http",
							"host": [
								"localhost"
							],
							"port": "4000",
							"path": [
								"courses",
								"all"
							]
						}
					},
					"response": []
				},
				{
					"name": "GET /",
					"request": {
						"method": "GET",
						"header": [],
						"url": {
							"raw": "http://localhost:4000/courses",
							"protocol": "http",
							"host": [
								"localhost"
							],
							"port": "4000",
							"path": [
								"courses"
							]
						}
					},
					"response": []
				},
				{
					"name": "GET /:courseId",
					"request": {
						"method": "GET",
						"header": [],
						"url": {
							"raw": "http://localhost:4000/courses/64d602d32788ccbf0bae7690",
							"protocol": "http",
							"host": [
								"localhost"
							],
							"port": "4000",
							"path": [
								"courses",
								"64d602d32788ccbf0bae7690"
							]
						}
					},
					"response": []
				},
				{
					"name": "PUT /:courseId",
					"request": {
						"auth": {
							"type": "bearer",
							"bearer": [
								{
									"key": "token",
									"value": "eyJhbGciOiJIUzI1NiIsInR5cCI6IkpXVCJ9.eyJpZCI6IjY0ZDU4Y2JjOTA4ZDFkZDk0ZmRkMDE5NyIsImVtYWlsIjoiYWRtaW5AbWFpbC5jb20iLCJpc0FkbWluIjp0cnVlLCJpYXQiOjE2OTE3MTk5MDV9.xd_o6l-DFH4L4qZKUOoMfqtvbh_5ZCAnmTgbMp-l9Jo",
									"type": "string"
								}
							]
						},
						"method": "PUT",
						"header": [],
						"body": {
							"mode": "raw",
							"raw": "{\r\n    \"name\" : \"JavaScript\",\r\n    \"description\" : \"Making websites interactive since the 90's.\",\r\n    \"price\" : 2000\r\n}",
							"options": {
								"raw": {
									"language": "json"
								}
							}
						},
						"url": {
							"raw": "http://localhost:4000/courses/64d602d32788ccbf0bae7690",
							"protocol": "http",
							"host": [
								"localhost"
							],
							"port": "4000",
							"path": [
								"courses",
								"64d602d32788ccbf0bae7690"
							]
						}
					},
					"response": []
				},
				{
					"name": "PUT /:courseId/archive",
					"request": {
						"auth": {
							"type": "bearer",
							"bearer": [
								{
									"key": "token",
									"value": "eyJhbGciOiJIUzI1NiIsInR5cCI6IkpXVCJ9.eyJpZCI6IjY0ZDU4Y2JjOTA4ZDFkZDk0ZmRkMDE5NyIsImVtYWlsIjoiYWRtaW5AbWFpbC5jb20iLCJpc0FkbWluIjp0cnVlLCJpYXQiOjE2OTE3MTk5MDV9.xd_o6l-DFH4L4qZKUOoMfqtvbh_5ZCAnmTgbMp-l9Jo",
									"type": "string"
								}
							]
						},
						"method": "PUT",
						"header": [],
						"body": {
							"mode": "raw",
							"raw": "",
							"options": {
								"raw": {
									"language": "json"
								}
							}
						},
						"url": {
							"raw": "http://localhost:4000/courses/64d602d32788ccbf0bae7690/archive",
							"protocol": "http",
							"host": [
								"localhost"
							],
							"port": "4000",
							"path": [
								"courses",
								"64d602d32788ccbf0bae7690",
								"archive"
							]
						}
					},
					"response": []
				},
				{
					"name": "PUT /:courseId/activate",
					"request": {
						"auth": {
							"type": "bearer",
							"bearer": [
								{
									"key": "token",
									"value": "eyJhbGciOiJIUzI1NiIsInR5cCI6IkpXVCJ9.eyJpZCI6IjY0ZDU4Y2JjOTA4ZDFkZDk0ZmRkMDE5NyIsImVtYWlsIjoiYWRtaW5AbWFpbC5jb20iLCJpc0FkbWluIjp0cnVlLCJpYXQiOjE2OTE3MTk5MDV9.xd_o6l-DFH4L4qZKUOoMfqtvbh_5ZCAnmTgbMp-l9Jo",
									"type": "string"
								}
							]
						},
						"method": "PUT",
						"header": [],
						"body": {
							"mode": "raw",
							"raw": "{\r\n    \"name\":\"JavaScript by Jak\",\r\n    \"description\":\"Making websies interactive with Prof Jak\",\r\n    \"price\":200000\r\n}",
							"options": {
								"raw": {
									"language": "json"
								}
							}
						},
						"url": {
							"raw": "http://localhost:4000/courses/64d602d32788ccbf0bae7690/activate",
							"protocol": "http",
							"host": [
								"localhost"
							],
							"port": "4000",
							"path": [
								"courses",
								"64d602d32788ccbf0bae7690",
								"activate"
							]
						}
					},
					"response": []
				}
			]
		}
	]
}